Doing Economics: Empirical Project 3: Working in R
…
library(readstata13)

PoSd <- read.dta13("public_use_weighted_prices2.dta")

  Before proceeding, use the command str(PoSd) to look at the structure of this dataset (output not shown here). You will see that for each month and location (Berkeley or Non-Berkeley), there are prices for a variety of beverage categories, and we know whether the category is taxed or not. For any particular time-location-tax status combination we want the average price of all products.

  To make the summary table, we use the piping technique again:

table_test <- PoSd %>%
  group_by(year, month, location, tax) %>%
  summarize(avg.price = mean(price)) %>% 
  spread(location, avg.price) %>%
  print()

## # A tibble: 78 x 5
## # Groups:   year, month [39]
##     year month tax       Berkeley `Non-Berkeley`
##    <dbl> <dbl> <chr>        <dbl>          <dbl>
##  1  2013     1 Non-taxed     5.72           5.35
##  2  2013     1 Taxed         8.69           7.99
##  3  2013     2 Non-taxed     5.81           5.36
##  4  2013     2 Taxed         8.65           8.18
##  5  2013     3 Non-taxed     5.86           5.42
##  6  2013     3 Taxed         8.82           8.19
##  7  2013     4 Non-taxed     5.86           5.64
##  8  2013     4 Taxed         9.02           8.25
##  9  2013     5 Non-taxed     5.79           5.18
## 10  2013     5 Taxed         8.68           7.76
## # ... with 68 more rows
…
