Doing Economics: Empirical Project 4: Working in R
…
cons = subset(long_UN,
  IndicatorName == "Final consumption expenditure")

  Now we create the table showing the number of missing years by country, using the piping operator (%>%) from the tidyverse package. This operator allows us to perform multiple functions, one after another.

# Use the pipe operator (%>%) from the tidyverse package.
# This means: use the result of the current line
# as the first argument in the next line's function.

missing_by_country = cons %>%
  group_by(Country) %>%
  summarize(available_years=sum(!is.na(value))) %>%
  print()

## # A tibble: 220 x 2
##    Country             available_years
##    <chr>                         <int>
##  1 Afghanistan                      47
##  2 Albania                          47
##  3 Algeria                          47
##  4 Andorra                          47
##  5 Angola                           47
##  6 Anguilla                         47
##  7 Antigua and Barbuda              47
##  8 Argentina                        47
##  9 Armenia                          27
## 10 Aruba                            47
## # ... with 210 more rows
…
HDR2018$I.Income <-
  (log(HDR2018$GNI.capita) - log(100)) /
  (log(75000) - log(100))

HDR2018$HDI.calc <- 
  (HDR2018$I.Health * HDR2018$I.Education * 
    HDR2018$I.Income)^(1/3)

  Now we can compare the HDI given in the table and our calculated HDI.

HDR2018[, c("HDI", "HDI.calc")]

## # A tibble: 188 x 2
##   HDI   HDI.calc
##   <dbl> <dbl>
## 1 0.949 0.949
## 2 0.939 0.939
## 3 0.939 0.939
## 4 0.926 0.926
## 5 0.925 0.925
## 6 0.925 0.927
## 7 0.924 0.924
## 8 0.923 0.923
## 9 0.921 0.921
## 10 0.920 0.920
## # ... with 178 more rows
…
