Doing Economics: Empirical Project 5: Working in R
…
  These correspond to eastern European countries before the fall of communism.

  Now the most unequal countries (those with a Gini coefficient larger than 0.73):

temp <- subset(
  decile_data, decile_data$gini > 0.73, 
  select = c("Country", "Year", "gini"))
temp

## # A tibble: 27 x 3
##    Country       Year  gini
##    <chr>        <dbl> <dbl>
##  1 Burkina Faso  1980 0.738
##  2 Burkina Faso  1981 0.738
##  3 Burkina Faso  1982 0.738
##  4 Burkina Faso  1983 0.738
##  5 Burkina Faso  1984 0.738
##  6 Burkina Faso  1985 0.738
##  7 Burkina Faso  1986 0.738
##  8 Burkina Faso  1987 0.738
##  9 Burkina Faso  1988 0.738
## 10 Burkina Faso  1989 0.739
## # ... with 17 more rows
…
