Doing Economics: Empirical Project 6: Working in R
…
  We choose Canada, Brazil, and the United States. Again, we use the piping technique to make the table. In the group_by command, we group the variables by size and ownership (as we did in R walk-through 6.1).

table_stats2 <- man_data %>% 
  filter(country %in% c("Canada",
    "United States", "Brazil")) %>% 
  group_by(country, ownership, size) %>% 
  summarize(obs = length(management), 
    mean_m = mean(management, na.rm = TRUE), 
    sd_m = sd(management, na.rm = TRUE))

table_stats2

## # A tibble: 53 x 6
## # Groups:   country, ownership [?]
##    country ownership                  size    obs mean_m    sd_m
##    <fct>   <fct>                      <fct> <int>  <dbl>   <dbl>
##  1 Brazil  Dispersed Shareholders     small    28   3.06   0.667
##  2 Brazil  Dispersed Shareholders     large    45   3.48   0.731
##  3 Brazil  Family owned, external CEO small     8   2.82   0.725
##  4 Brazil  Family owned, external CEO large    10   2.99   0.688
##  5 Brazil  Family owned, family CEO   small    80   2.50   0.668
##  6 Brazil  Family owned, family CEO   large    41   2.70   0.645
##  7 Brazil  Founder                    small   124   2.35   0.524
##  8 Brazil  Founder                    large    72   2.66   0.591
##  9 Brazil  Government                 small     1   4    NaN    
## 10 Brazil  Government                 large     2   2.44   1.18 
## # ... with 43 more rows

  Now we use the variable size as a column variable, so that we can see the summary statistics in two blocks of columns (separately for larger and smaller firms). This is not a standard or straightforward procedure, but an Internet search (for ‘tidyverse spread multiple columns’) gives the following solution.

table_stats2_mc <- table_stats2 %>% 
  gather(variable, value, -(country:size)) %>% 
  unite(temp, size, variable) %>% 
  spread(temp, value)

print(table_stats2_mc)

## # A tibble: 28 x 8
## # Groups:   country, ownership [28]
##    country ownership        large_mean_m large_obs large_sd_m small_mean_m
##    <fct>   <fct>                   <dbl>     <dbl>      <dbl>        <dbl>
##  1 Brazil  Dispersed Share~         3.48        45      0.731         3.06
##  2 Brazil  Family owned, e~         2.99        10      0.688         2.82
##  3 Brazil  Family owned, f~         2.70        41      0.645         2.50
##  4 Brazil  Founder                  2.66        72      0.591         2.35
##  5 Brazil  Government               2.44         2      1.18          4   
##  6 Brazil  Managers                 2.51         7      0.631         2.64
##  7 Brazil  Other                    3.01        29      0.541         2.57
##  8 Brazil  Private Equity          NA           NA     NA             3.23
##  9 Brazil  Private Individ~         2.94        42      0.523         2.69
## 10 Canada  Dispersed Share~         3.52        53      0.582         3.43
## # ... with 18 more rows, and 2 more variables: small_obs <dbl>,
## #   small_sd_m <dbl>
…
